Dplyr_Package_data_summary
…
## # A tibble: 5 x 2
##   Month `mean(Wind, na.rm = T)`
##   <int>                   <dbl>
## 1     5                   11.6 
## 2     6                   10.3 
## 3     7                    8.94
## 4     8                    8.79
## 5     9                   10.2

summarise(group_by(airquality,airquality$Day),mean(Solar.R,na.rm=T))

## # A tibble: 31 x 2
##    `airquality$Day` `mean(Solar.R, na.rm = T)`
##               <int>                      <dbl>
##  1                1                       199 
##  2                2                       175.
##  3                3                       177.
##  4                4                       197.
##  5                5                       163.
##  6                6                       223.
##  7                7                       242.
##  8                8                       218.
##  9                9                       204.
## 10               10                       235.
## # ... with 21 more rows
…
